Basic Stat Lab Solution
…
[1] 0.5

pt(2.5, 3) ->
  tp_2.5
tp_2.5

[1] 0.9561467

t <- seq(-5, 5, length = 100)
y_t <- dt(t, df =3) 
df_t <- tibble(t, y_t)
df_t

# A tibble: 100 × 2
       t     y_t
   <dbl>   <dbl>
 1 -5    0.00422
 2 -4.90 0.00454
 3 -4.80 0.00489
 4 -4.70 0.00527
 5 -4.60 0.00568
 6 -4.49 0.00614
 7 -4.39 0.00665
 8 -4.29 0.00720
 9 -4.19 0.00782
10 -4.09 0.00849
# … with 90 more rows

 t <- seq(-6, 6, length = 500)
y_t <- dt(t,  df = 3)
  polydf <- tibble(x = c(min(t), t[t < 2.5], 2.5, 0), 
                       y = c(0, y_t[t < 2.5], 0, 0))
polydf

# A tibble: 357 × 2
       x       y
   <dbl>   <dbl>
 1 -6    0      
 2 -6    0.00217
 3 -5.98 0.00221
 4 -5.95 0.00224
 5 -5.93 0.00227
 6 -5.90 0.00231
 7 -5.88 0.00234
 8 -5.86 0.00238
 9 -5.83 0.00242
10 -5.81 0.00245
# … with 347 more rows
…
# Area to the right of t = 1.75
1- pt(1.75, 1)

[1] 0.1652493

Graph it

 t <- seq(-5, 5, length = 500)
y_t <- dt(t,  df = 1)
 df_t1 <- tibble(x = c(1.75, t[t > 1.75], max(t)), 
                       y = c(0, y_t[t > 1.75], 0))
df_t1

# A tibble: 165 × 2
       x      y
   <dbl>  <dbl>
 1  1.75 0     
 2  1.75 0.0781
 3  1.77 0.0768
 4  1.79 0.0755
 5  1.81 0.0742
 6  1.83 0.0730
 7  1.85 0.0718
 8  1.87 0.0706
 9  1.89 0.0694
10  1.91 0.0683
# … with 155 more rows
…
